"fecha","casos","incremento","increm_pct","increm_pct_char","lag7","MA7","MA7incre","habitantes","tasa100mil","MA5tasa","MA5col","tasacol"
"2020-06-15",34,0,0,NA,NA,NA,NA,446765,7.61,NA,NA,"#00CD00"
"2020-06-16",33,-1,-2.94,"-2.94%",NA,NA,NA,446765,7.39,NA,NA,"#00CD00"
"2020-06-17",30,-3,-9.09,"-9.09%",NA,NA,NA,446765,6.71,NA,NA,"#00CD00"
"2020-06-18",31,1,3.33,"3.33%",NA,NA,NA,446765,6.94,NA,NA,"#00CD00"
"2020-06-19",29,-2,-6.45,"-6.45%",NA,NA,NA,446765,6.49,7.03,"#00CD00","#00CD00"
"2020-06-20",29,0,0,"0%",NA,NA,NA,446765,6.49,6.8,"#00CD00","#00CD00"
"2020-06-21",29,0,0,"0%",NA,30.71,NA,446765,6.49,6.62,"#00CD00","#00CD00"
"2020-06-22",34,5,17.24,"17.24%",0,30.71,0,446765,7.61,6.8,"#00CD00","#00CD00"
"2020-06-23",31,-3,-8.82,"-8.82%",-2,30.43,-0.29,446765,6.94,6.8,"#00CD00","#00CD00"
"2020-06-24",31,0,0,"0%",1,30.57,0.14,446765,6.94,6.89,"#00CD00","#00CD00"
"2020-06-25",28,-3,-9.68,"-9.68%",-3,30.14,-0.43,446765,6.27,6.85,"#00CD00","#00CD00"
"2020-06-26",26,-2,-7.14,"-7.14%",-3,29.71,-0.43,446765,5.82,6.72,"#00CD00","#00CD00"
"2020-06-27",26,0,0,"0%",-3,29.29,-0.43,446765,5.82,6.36,"#00CD00","#00CD00"
"2020-06-28",25,-1,-3.85,"-3.85%",-4,28.71,-0.57,446765,5.6,6.09,"#00CD00","#00CD00"
"2020-06-29",24,-1,-4,"-4%",-10,27.29,-1.43,446765,5.37,5.78,"#00CD00","#00CD00"
"2020-06-30",24,0,0,"0%",-7,26.29,-1,446765,5.37,5.6,"#00CD00","#00CD00"
"2020-07-01",23,-1,-4.17,"-4.17%",-8,25.14,-1.14,446765,5.15,5.46,"#00CD00","#00CD00"
"2020-07-02",24,1,4.35,"4.35%",-4,24.57,-0.57,446765,5.37,5.37,"#00CD00","#00CD00"
"2020-07-03",24,0,0,"0%",-2,24.29,-0.29,446765,5.37,5.33,"#00CD00","#00CD00"
"2020-07-04",24,0,0,"0%",-2,24,-0.29,446765,5.37,5.33,"#00CD00","#00CD00"
"2020-07-05",24,0,0,"0%",-1,23.86,-0.14,446765,5.37,5.33,"#00CD00","#00CD00"
"2020-07-06",13,-11,-45.83,"-45.83%",-11,22.29,-1.57,446765,2.91,4.88,"#00CD00","#00CD00"
"2020-07-07",13,0,0,"0%",-11,20.71,-1.57,446765,2.91,4.39,"#00CD00","#00CD00"
"2020-07-08",13,0,0,"0%",-10,19.29,-1.43,446765,2.91,3.89,"#00CD00","#00CD00"
"2020-07-09",14,1,7.69,"7.69%",-10,17.86,-1.43,446765,3.13,3.45,"#00CD00","#00CD00"
"2020-07-10",14,0,0,"0%",-10,16.43,-1.43,446765,3.13,3,"#00CD00","#00CD00"
"2020-07-11",14,0,0,"0%",-10,15,-1.43,446765,3.13,3.04,"#00CD00","#00CD00"
"2020-07-12",14,0,0,"0%",-10,13.57,-1.43,446765,3.13,3.09,"#00CD00","#00CD00"
"2020-07-13",16,2,14.29,"14.29%",3,14,0.43,446765,3.58,3.22,"#00CD00","#00CD00"
"2020-07-14",15,-1,-6.25,"-6.25%",2,14.29,0.29,446765,3.36,3.27,"#00CD00","#00CD00"
"2020-07-15",15,0,0,"0%",2,14.57,0.29,446765,3.36,3.31,"#00CD00","#00CD00"
"2020-07-16",12,-3,-20,"-20%",-2,14.29,-0.29,446765,2.69,3.22,"#00CD00","#00CD00"
"2020-07-17",7,-5,-41.67,"-41.67%",-7,13.29,-1,446765,1.57,2.91,"#00CD00","#00CD00"
"2020-07-18",12,5,71.43,"71.43%",-2,13,-0.29,446765,2.69,2.73,"#00CD00","#00CD00"
"2020-07-19",7,-5,-41.67,"-41.67%",-7,12,-1,446765,1.57,2.38,"#00CD00","#00CD00"
"2020-07-20",8,1,14.29,"14.29%",-8,10.86,-1.14,446765,1.79,2.06,"#00CD00","#00CD00"
"2020-07-21",9,1,12.5,"12.5%",-6,10,-0.86,446765,2.01,1.93,"#00CD00","#00CD00"
"2020-07-22",11,2,22.22,"22.22%",-4,9.43,-0.57,446765,2.46,2.1,"#00CD00","#00CD00"
"2020-07-23",10,-1,-9.09,"-9.09%",-2,9.14,-0.29,446765,2.24,2.01,"#00CD00","#00CD00"
"2020-07-24",11,1,10,"10%",4,9.71,0.57,446765,2.46,2.19,"#00CD00","#00CD00"
"2020-07-25",11,0,0,"0%",-1,9.57,-0.14,446765,2.46,2.33,"#00CD00","#00CD00"
"2020-07-26",13,2,18.18,"18.18%",6,10.43,0.86,446765,2.91,2.51,"#00CD00","#00CD00"
"2020-07-27",16,3,23.08,"23.08%",8,11.57,1.14,446765,3.58,2.73,"#00CD00","#00CD00"
"2020-07-28",20,4,25,"25%",11,13.14,1.57,446765,4.48,3.18,"#00CD00","#00CD00"
"2020-07-29",21,1,5,"5%",10,14.57,1.43,446765,4.7,3.63,"#00CD00","#00CD00"
"2020-07-30",23,2,9.52,"9.52%",13,16.43,1.86,446765,5.15,4.16,"#00CD00","#00CD00"
"2020-07-31",23,0,0,"0%",12,18.14,1.71,446765,5.15,4.61,"#00CD00","#00CD00"
"2020-08-01",23,0,0,"0%",12,19.86,1.71,446765,5.15,4.93,"#00CD00","#00CD00"
"2020-08-02",25,2,8.7,"8.7%",12,21.57,1.71,446765,5.6,5.15,"#00CD00","#00CD00"
"2020-08-03",24,-1,-4,"-4%",8,22.71,1.14,446765,5.37,5.28,"#00CD00","#00CD00"
"2020-08-04",26,2,8.33,"8.33%",6,23.57,0.86,446765,5.82,5.42,"#00CD00","#00CD00"
"2020-08-05",28,2,7.69,"7.69%",7,24.57,1,446765,6.27,5.64,"#00CD00","#00CD00"
"2020-08-06",30,2,7.14,"7.14%",7,25.57,1,446765,6.71,5.95,"#00CD00","#00CD00"
"2020-08-07",35,5,16.67,"16.67%",12,27.29,1.71,446765,7.83,6.4,"#00CD00","#00CD00"
"2020-08-08",40,5,14.29,"14.29%",17,29.71,2.43,446765,8.95,7.12,"#00CD00","#00CD00"
"2020-08-09",41,1,2.5,"2.5%",16,32,2.29,446765,9.18,7.79,"#00CD00","#00CD00"
"2020-08-10",40,-1,-2.44,"-2.44%",16,34.29,2.29,446765,8.95,8.32,"#00CD00","#00CD00"
"2020-08-11",41,1,2.5,"2.5%",15,36.43,2.14,446765,9.18,8.82,"#00CD00","#00CD00"
"2020-08-12",45,4,9.76,"9.76%",17,38.86,2.43,446765,10.07,9.27,"#00CD00","#00CD00"
"2020-08-13",43,-2,-4.44,"-4.44%",13,40.71,1.86,446765,9.62,9.4,"#00CD00","#00CD00"
"2020-08-14",42,-1,-2.33,"-2.33%",7,41.71,1,446765,9.4,9.44,"#00CD00","#00CD00"
"2020-08-15",46,4,9.52,"9.52%",6,42.57,0.86,446765,10.3,9.71,"#00CD00","#00CD00"
"2020-08-16",55,9,19.57,"19.57%",14,44.57,2,446765,12.31,10.34,"#00CD00","#00CD00"
"2020-08-17",63,8,14.55,"14.55%",23,47.86,3.29,446765,14.1,11.15,"#00CD00","#00CD00"
"2020-08-18",67,4,6.35,"6.35%",26,51.57,3.71,446765,15,12.22,"#00CD00","#00CD00"
"2020-08-19",91,24,35.82,"35.82%",46,58.14,6.57,446765,20.37,14.42,"#00CD00","#00CD00"
"2020-08-20",113,22,24.18,"24.18%",70,68.14,10,446765,25.29,17.41,"#00CD00","red"
"2020-08-21",130,17,15.04,"15.04%",88,80.71,12.57,446765,29.1,20.77,"#00CD00","red"
"2020-08-22",172,42,32.31,"32.31%",126,98.71,18,446765,38.5,25.65,"red","red"
"2020-08-23",212,40,23.26,"23.26%",157,121.14,22.43,446765,47.45,32.14,"red","red"
"2020-08-24",274,62,29.25,"29.25%",211,151.29,30.14,446765,61.33,40.33,"red","red"
"2020-08-25",329,55,20.07,"20.07%",262,188.71,37.43,446765,73.64,50,"red","red"
"2020-08-26",382,53,16.11,"16.11%",291,230.29,41.57,446765,85.5,61.28,"red","red"
"2020-08-27",404,22,5.76,"5.76%",291,271.86,41.57,446765,90.43,71.67,"red","red"
"2020-08-28",450,46,11.39,"11.39%",320,317.57,45.71,446765,100.72,82.32,"red","red"
"2020-08-29",473,23,5.11,"5.11%",301,360.57,43,446765,105.87,91.23,"red","red"
"2020-08-30",540,67,14.16,"14.16%",328,407.43,46.86,446765,120.87,100.68,"red","red"
"2020-08-31",582,42,7.78,"7.78%",308,451.43,44,446765,130.27,109.63,"red","red"
"2020-09-01",607,25,4.3,"4.3%",278,491.14,39.71,446765,135.87,118.72,"red","red"
"2020-09-02",644,37,6.1,"6.1%",262,528.57,37.43,446765,144.15,127.41,"red","red"
"2020-09-03",659,15,2.33,"2.33%",255,565,36.43,446765,147.5,135.73,"red","red"
"2020-09-04",673,14,2.12,"2.12%",223,596.86,31.86,446765,150.64,141.69,"red","red"
"2020-09-05",677,4,0.59,"0.59%",204,626,29.14,446765,151.53,145.94,"red","red"
"2020-09-06",688,11,1.62,"1.62%",148,647.14,21.14,446765,154,149.56,"red","red"
"2020-09-07",688,0,0,"0%",106,662.29,15.14,446765,154,151.53,"red","red"
"2020-09-08",662,-26,-3.78,"-3.78%",55,670.14,7.86,446765,148.18,151.67,"red","red"
"2020-09-09",659,-3,-0.45,"-0.45%",15,672.29,2.14,446765,147.5,151.04,"red","red"
"2020-09-10",658,-1,-0.15,"-0.15%",-1,672.14,-0.14,446765,147.28,150.19,"red","red"
"2020-09-11",689,31,4.71,"4.71%",16,674.43,2.29,446765,154.22,150.24,"red","red"
"2020-09-12",679,-10,-1.45,"-1.45%",2,674.71,0.29,446765,151.98,149.83,"red","red"
"2020-09-13",670,-9,-1.33,"-1.33%",-18,672.14,-2.57,446765,149.97,150.19,"red","red"
"2020-09-14",640,-30,-4.48,"-4.48%",-48,665.29,-6.86,446765,143.25,149.34,"red","red"
"2020-09-15",673,33,5.16,"5.16%",11,666.86,1.57,446765,150.64,150.01,"red","red"
"2020-09-16",659,-14,-2.08,"-2.08%",0,666.86,0,446765,147.5,148.67,"red","red"
"2020-09-17",635,-24,-3.64,"-3.64%",-23,663.57,-3.29,446765,142.13,146.7,"red","red"
"2020-09-18",631,-4,-0.63,"-0.63%",-58,655.29,-8.29,446765,141.24,144.95,"red","red"
"2020-09-19",626,-5,-0.79,"-0.79%",-53,647.71,-7.57,446765,140.12,144.33,"red","red"
"2020-09-20",637,11,1.76,"1.76%",-33,643,-4.71,446765,142.58,142.71,"red","red"
"2020-09-21",625,-12,-1.88,"-1.88%",-15,640.86,-2.14,446765,139.89,141.19,"red","red"
"2020-09-22",627,2,0.32,"0.32%",-46,634.29,-6.57,446765,140.34,140.83,"red","red"
"2020-09-23",633,6,0.96,"0.96%",-26,630.57,-3.71,446765,141.69,140.92,"red","red"
"2020-09-24",608,-25,-3.95,"-3.95%",-27,626.71,-3.86,446765,136.09,140.12,"red","red"
"2020-09-25",578,-30,-4.93,"-4.93%",-53,619.14,-7.57,446765,129.37,137.48,"red","red"
"2020-09-26",555,-23,-3.98,"-3.98%",-71,609,-10.14,446765,124.23,134.34,"red","red"
"2020-09-27",577,22,3.96,"3.96%",-60,600.43,-8.57,446765,129.15,132.11,"red","red"
"2020-09-28",583,6,1.04,"1.04%",-42,594.43,-6,446765,130.49,129.87,"red","red"
"2020-09-29",572,-11,-1.89,"-1.89%",-55,586.57,-7.86,446765,128.03,128.25,"red","red"
"2020-09-30",537,-35,-6.12,"-6.12%",-96,572.86,-13.71,446765,120.2,126.42,"red","red"
"2020-10-01",534,-3,-0.56,"-0.56%",-74,562.29,-10.57,446765,119.53,125.48,"red","red"
"2020-10-02",539,5,0.94,"0.94%",-39,556.71,-5.57,446765,120.65,123.78,"red","red"
"2020-10-03",547,8,1.48,"1.48%",-8,555.57,-1.14,446765,122.44,122.17,"red","red"
"2020-10-04",530,-17,-3.11,"-3.11%",-47,548.86,-6.71,446765,118.63,120.29,"red","red"
"2020-10-05",528,-2,-0.38,"-0.38%",-55,541,-7.86,446765,118.18,119.89,"red","red"
"2020-10-06",527,-1,-0.19,"-0.19%",-45,534.57,-6.43,446765,117.96,119.57,"red","red"
"2020-10-07",544,17,3.23,"3.23%",7,535.57,1,446765,121.76,119.79,"red","red"
"2020-10-08",545,1,0.18,"0.18%",11,537.14,1.57,446765,121.99,119.7,"red","red"
"2020-10-09",552,7,1.28,"1.28%",13,539,1.86,446765,123.55,120.69,"red","red"
"2020-10-10",581,29,5.25,"5.25%",34,543.86,4.86,446765,130.05,123.06,"red","red"
"2020-10-11",598,17,2.93,"2.93%",68,553.57,9.71,446765,133.85,126.24,"red","red"
"2020-10-12",621,23,3.85,"3.85%",93,566.86,13.29,446765,139,129.69,"red","red"
"2020-10-13",624,3,0.48,"0.48%",97,580.71,13.86,446765,139.67,133.22,"red","red"
"2020-10-14",628,4,0.64,"0.64%",84,592.71,12,446765,140.57,136.63,"red","red"
"2020-10-15",639,11,1.75,"1.75%",94,606.14,13.43,446765,143.03,139.22,"red","red"
"2020-10-16",660,21,3.29,"3.29%",108,621.57,15.43,446765,147.73,142,"red","red"
"2020-10-17",686,26,3.94,"3.94%",105,636.57,15,446765,153.55,144.91,"red","red"
"2020-10-18",719,33,4.81,"4.81%",121,653.86,17.29,446765,160.93,149.16,"red","red"
"2020-10-19",762,43,5.98,"5.98%",141,674,20.14,446765,170.56,155.16,"red","red"
"2020-10-20",814,52,6.82,"6.82%",190,701.14,27.14,446765,182.2,162.99,"red","red"
"2020-10-21",852,38,4.67,"4.67%",224,733.14,32,446765,190.7,171.59,"red","red"
"2020-10-22",891,39,4.58,"4.58%",252,769.14,36,446765,199.43,180.76,"red","red"
"2020-10-23",983,92,10.33,"10.33%",323,815.29,46.14,446765,220.03,192.58,"red","red"
"2020-10-24",1047,64,6.51,"6.51%",361,866.86,51.57,446765,234.35,205.34,"red","red"
"2020-10-25",1089,42,4.01,"4.01%",370,919.71,52.86,446765,243.75,217.65,"red","red"
"2020-10-26",1122,33,3.03,"3.03%",360,971.14,51.43,446765,251.14,229.74,"red","red"
"2020-10-27",1128,6,0.53,"0.53%",314,1016,44.86,446765,252.48,240.35,"red","red"
"2020-10-28",1186,58,5.14,"5.14%",334,1063.71,47.71,446765,265.46,249.44,"red","red"
"2020-10-29",1251,65,5.48,"5.48%",360,1115.14,51.43,446765,280.01,258.57,"red","red"
"2020-10-30",1322,71,5.68,"5.68%",339,1163.57,48.43,446765,295.91,269,"red","red"
"2020-10-31",1349,27,2.04,"2.04%",302,1206.71,43.14,446765,301.95,279.16,"red","red"
"2020-11-01",1372,23,1.7,"1.7%",283,1247.14,40.43,446765,307.1,290.09,"red","red"
"2020-11-02",1360,-12,-0.87,"-0.87%",238,1281.14,34,446765,304.41,297.88,"red","red"
"2020-11-03",1348,-12,-0.88,"-0.88%",220,1312.57,31.43,446765,301.72,302.22,"red","red"
"2020-11-04",1350,2,0.15,"0.15%",164,1336,23.43,446765,302.17,303.47,"red","red"
"2020-11-05",1338,-12,-0.89,"-0.89%",87,1348.43,12.43,446765,299.49,302.98,"red","red"
"2020-11-06",1337,-1,-0.07,"-0.07%",15,1350.57,2.14,446765,299.26,301.41,"red","red"
"2020-11-07",1289,-48,-3.59,"-3.59%",-60,1342,-8.57,446765,288.52,298.23,"red","red"
"2020-11-08",1226,-63,-4.89,"-4.89%",-146,1321.14,-20.86,446765,274.42,292.77,"red","red"
"2020-11-09",1209,-17,-1.39,"-1.39%",-151,1299.57,-21.57,446765,270.61,286.46,"red","red"
"2020-11-10",1170,-39,-3.23,"-3.23%",-178,1274.14,-25.43,446765,261.88,278.94,"red","red"
"2020-11-11",1186,16,1.37,"1.37%",-164,1250.71,-23.43,446765,265.46,272.18,"red","red"
"2020-11-12",1148,-38,-3.2,"-3.2%",-190,1223.57,-27.14,446765,256.96,265.87,"red","red"
"2020-11-13",1130,-18,-1.57,"-1.57%",-207,1194,-29.57,446765,252.93,261.57,"red","red"
"2020-11-14",1085,-45,-3.98,"-3.98%",-204,1164.86,-29.14,446765,242.86,256.02,"red","red"
"2020-11-15",1041,-44,-4.06,"-4.06%",-185,1138.43,-26.43,446765,233.01,250.24,"red","red"
"2020-11-16",1036,-5,-0.48,"-0.48%",-173,1113.71,-24.71,446765,231.89,243.53,"red","red"
"2020-11-17",1036,0,0,"0%",-134,1094.57,-19.14,446765,231.89,238.52,"red","red"
"2020-11-18",1006,-30,-2.9,"-2.9%",-180,1068.86,-25.71,446765,225.17,232.96,"red","red"
"2020-11-19",993,-13,-1.29,"-1.29%",-155,1046.71,-22.14,446765,222.26,228.84,"red","red"
"2020-11-20",1008,15,1.51,"1.51%",-122,1029.29,-17.43,446765,225.62,227.37,"red","red"
"2020-11-21",1005,-3,-0.3,"-0.3%",-80,1017.86,-11.43,446765,224.95,225.98,"red","red"
"2020-11-22",975,-30,-2.99,"-2.99%",-66,1008.43,-9.43,446765,218.24,223.25,"red","red"
"2020-11-23",959,-16,-1.64,"-1.64%",-77,997.43,-11,446765,214.65,221.14,"red","red"
"2020-11-24",982,23,2.4,"2.4%",-54,989.71,-7.71,446765,219.8,220.65,"red","red"
"2020-11-25",962,-20,-2.04,"-2.04%",-44,983.43,-6.29,446765,215.33,218.59,"red","red"
"2020-11-26",948,-14,-1.46,"-1.46%",-45,977,-6.43,446765,212.19,216.04,"red","red"
"2020-11-27",930,-18,-1.9,"-1.9%",-78,965.86,-11.14,446765,208.16,214.03,"red","red"
"2020-11-28",898,-32,-3.44,"-3.44%",-107,950.57,-15.29,446765,201,211.3,"red","red"
"2020-11-29",866,-32,-3.56,"-3.56%",-109,935,-15.57,446765,193.84,206.1,"red","red"
"2020-11-30",860,-6,-0.69,"-0.69%",-99,920.86,-14.14,446765,192.49,201.54,"red","red"
"2020-12-01",845,-15,-1.74,"-1.74%",-137,901.29,-19.57,446765,189.14,196.93,"red","red"
"2020-12-02",834,-11,-1.3,"-1.3%",-128,883,-18.29,446765,186.68,192.63,"red","red"
"2020-12-03",825,-9,-1.08,"-1.08%",-123,865.43,-17.57,446765,184.66,189.36,"red","red"
"2020-12-04",821,-4,-0.48,"-0.48%",-109,849.86,-15.57,446765,183.77,187.35,"red","red"
"2020-12-05",807,-14,-1.71,"-1.71%",-91,836.86,-13,446765,180.63,184.98,"red","red"
"2020-12-06",784,-23,-2.85,"-2.85%",-82,825.14,-11.71,446765,175.48,182.24,"red","red"
"2020-12-07",795,11,1.4,"1.4%",-65,815.86,-9.29,446765,177.95,180.5,"red","red"
"2020-12-08",783,-12,-1.51,"-1.51%",-62,807,-8.86,446765,175.26,178.62,"red","red"
"2020-12-09",785,2,0.26,"0.26%",-49,800,-7,446765,175.71,177.01,"red","red"
"2020-12-10",817,32,4.08,"4.08%",-8,798.86,-1.14,446765,182.87,177.45,"red","red"
"2020-12-11",824,7,0.86,"0.86%",3,799.29,0.43,446765,184.44,179.25,"red","red"
"2020-12-12",852,28,3.4,"3.4%",45,805.71,6.43,446765,190.7,181.8,"red","red"
"2020-12-13",905,53,6.22,"6.22%",121,823,17.29,446765,202.57,187.26,"red","red"
"2020-12-14",952,47,5.19,"5.19%",157,845.43,22.43,446765,213.09,194.73,"red","red"
"2020-12-15",1005,53,5.57,"5.57%",222,877.14,31.71,446765,224.95,203.15,"red","red"
"2020-12-16",1054,49,4.88,"4.88%",269,915.57,38.43,446765,235.92,213.45,"red","red"
"2020-12-17",1100,46,4.36,"4.36%",283,956,40.43,446765,246.21,224.55,"red","red"
"2020-12-18",1144,44,4,"4%",320,1001.71,45.71,446765,256.06,235.25,"red","red"
"2020-12-19",1195,51,4.46,"4.46%",343,1050.71,49,446765,267.48,246.12,"red","red"
"2020-12-20",1216,21,1.76,"1.76%",311,1095.14,44.43,446765,272.18,255.57,"red","red"
"2020-12-21",1235,19,1.56,"1.56%",283,1135.57,40.43,446765,276.43,263.67,"red","red"
"2020-12-22",1248,13,1.05,"1.05%",243,1170.29,34.71,446765,279.34,270.3,"red","red"
"2020-12-23",1270,22,1.76,"1.76%",216,1201.14,30.86,446765,284.27,275.94,"red","red"
"2020-12-24",1321,51,4.02,"4.02%",221,1232.71,31.57,446765,295.68,281.58,"red","red"
"2020-12-25",1323,2,0.15,"0.15%",179,1258.29,25.57,446765,296.13,286.37,"red","red"
"2020-12-26",1355,32,2.42,"2.42%",160,1281.14,22.86,446765,303.29,291.74,"red","red"
"2020-12-27",1352,-3,-0.22,"-0.22%",136,1300.57,19.43,446765,302.62,296.4,"red","red"
"2020-12-28",1347,-5,-0.37,"-0.37%",112,1316.57,16,446765,301.5,299.84,"red","red"
"2020-12-29",1336,-11,-0.82,"-0.82%",88,1329.14,12.57,446765,299.04,300.52,"red","red"
"2020-12-30",1373,37,2.77,"2.77%",103,1343.86,14.71,446765,307.32,302.75,"red","red"
"2020-12-31",1369,-4,-0.29,"-0.29%",48,1350.71,6.86,446765,306.43,303.38,"red","red"
"2021-01-01",1346,-23,-1.68,"-1.68%",23,1354,3.29,446765,301.28,303.11,"red","red"
"2021-01-02",1356,10,0.74,"0.74%",1,1354.14,0.14,446765,303.52,303.52,"red","red"
"2021-01-03",1332,-24,-1.77,"-1.77%",-20,1351.29,-2.86,446765,298.14,303.34,"red","red"
"2021-01-04",1327,-5,-0.38,"-0.38%",-20,1348.43,-2.86,446765,297.02,301.28,"red","red"
"2021-01-05",1336,9,0.68,"0.68%",0,1348.43,0,446765,299.04,299.8,"red","red"
"2021-01-06",1442,106,7.93,"7.93%",69,1358.29,9.86,446765,322.76,304.1,"red","red"
"2021-01-07",1453,11,0.76,"0.76%",84,1370.29,12,446765,325.23,308.44,"red","red"
"2021-01-08",1517,64,4.4,"4.4%",171,1394.71,24.43,446765,339.55,316.72,"red","red"
"2021-01-09",1650,133,8.77,"8.77%",294,1436.71,42,446765,369.32,331.18,"red","red"
"2021-01-10",1642,-8,-0.48,"-0.48%",310,1481,44.29,446765,367.53,344.88,"red","red"
"2021-01-11",1679,37,2.25,"2.25%",352,1531.29,50.29,446765,375.81,355.49,"red","red"
"2021-01-12",1810,131,7.8,"7.8%",474,1599,67.71,446765,405.13,371.47,"red","red"
"2021-01-13",1886,76,4.2,"4.2%",444,1662.43,63.43,446765,422.15,387.99,"red","red"
"2021-01-14",1983,97,5.14,"5.14%",530,1738.14,75.71,446765,443.86,402.9,"red","red"
"2021-01-15",2081,98,4.94,"4.94%",564,1818.71,80.57,446765,465.79,422.55,"red","red"
"2021-01-16",2157,76,3.65,"3.65%",507,1891.14,72.43,446765,482.8,443.95,"red","red"
"2021-01-17",2245,88,4.08,"4.08%",603,1977.29,86.14,446765,502.5,463.42,"red","red"
"2021-01-18",2341,96,4.28,"4.28%",662,2071.86,94.57,446765,523.99,483.79,"red","red"
"2021-01-19",2507,166,7.09,"7.09%",697,2171.43,99.57,446765,561.15,507.25,"red","red"
"2021-01-20",2593,86,3.43,"3.43%",707,2272.43,101,446765,580.39,530.17,"red","red"
"2021-01-21",2694,101,3.9,"3.9%",711,2374,101.57,446765,603,554.21,"red","red"
"2021-01-22",2843,149,5.53,"5.53%",762,2482.86,108.86,446765,636.35,580.98,"red","red"
"2021-01-23",2947,104,3.66,"3.66%",790,2595.71,112.86,446765,659.63,608.1,"red","red"
"2021-01-24",2924,-23,-0.78,"-0.78%",679,2692.71,97,446765,654.48,626.77,"red","red"
"2021-01-25",3118,194,6.63,"6.63%",777,2803.71,111,446765,697.91,650.27,"red","red"
"2021-01-26",3242,124,3.98,"3.98%",735,2908.71,105,446765,725.66,674.81,"red","red"
"2021-01-27",3309,67,2.07,"2.07%",716,3011,102.29,446765,740.66,695.67,"red","red"
"2021-01-28",3271,-38,-1.15,"-1.15%",577,3093.43,82.43,446765,732.15,710.17,"red","red"
"2021-01-29",3373,102,3.12,"3.12%",530,3169.14,75.71,446765,754.98,730.27,"red","red"
"2021-01-30",3445,72,2.13,"2.13%",498,3240.29,71.14,446765,771.1,744.91,"red","red"
"2021-01-31",3425,-20,-0.58,"-0.58%",501,3311.86,71.57,446765,766.62,753.1,"red","red"
"2021-02-01",3418,-7,-0.2,"-0.2%",300,3354.71,42.86,446765,765.06,757.98,"red","red"
"2021-02-02",3442,24,0.7,"0.7%",200,3383.29,28.57,446765,770.43,765.64,"red","red"
"2021-02-03",3366,-76,-2.21,"-2.21%",57,3391.43,8.14,446765,753.42,765.33,"red","red"
"2021-02-04",3418,52,1.54,"1.54%",147,3412.43,21,446765,765.06,764.12,"red","red"
"2021-02-05",3339,-79,-2.31,"-2.31%",-34,3407.57,-4.86,446765,747.37,760.27,"red","red"
"2021-02-06",3183,-156,-4.67,"-4.67%",-262,3370.14,-37.43,446765,712.46,749.75,"red","red"
"2021-02-07",3023,-160,-5.03,"-5.03%",-402,3312.71,-57.43,446765,676.64,730.99,"red","red"
"2021-02-08",2932,-91,-3.01,"-3.01%",-486,3243.29,-69.43,446765,656.27,711.56,"red","red"
"2021-02-09",2724,-208,-7.09,"-7.09%",-718,3140.71,-102.57,446765,609.72,680.49,"red","red"
"2021-02-10",2542,-182,-6.68,"-6.68%",-824,3023,-117.71,446765,568.98,644.81,"red","red"
"2021-02-11",2359,-183,-7.2,"-7.2%",-1059,2871.71,-151.29,446765,528.02,607.93,"red","red"
"2021-02-12",2188,-171,-7.25,"-7.25%",-1151,2707.29,-164.43,446765,489.74,570.55,"red","red"
"2021-02-13",1957,-231,-10.56,"-10.56%",-1226,2532.14,-175.14,446765,438.04,526.9,"red","red"
"2021-02-14",1812,-145,-7.41,"-7.41%",-1211,2359.14,-173,446765,405.58,486.07,"red","red"
"2021-02-15",1689,-123,-6.79,"-6.79%",-1243,2181.57,-177.57,446765,378.05,447.89,"red","red"
"2021-02-16",1610,-79,-4.68,"-4.68%",-1114,2022.43,-159.14,446765,360.37,414.36,"red","red"
"2021-02-17",1469,-141,-8.76,"-8.76%",-1073,1869.14,-153.29,446765,328.81,382.17,"red","red"
"2021-02-18",1351,-118,-8.03,"-8.03%",-1008,1725.14,-144,446765,302.4,355.04,"red","red"
"2021-02-19",1150,-201,-14.88,"-14.88%",-1038,1576.86,-148.29,446765,257.41,325.41,"red","red"
"2021-02-20",1045,-105,-9.13,"-9.13%",-912,1446.57,-130.29,446765,233.9,296.58,"red","red"
"2021-02-21",950,-95,-9.09,"-9.09%",-862,1323.43,-123.14,446765,212.64,267.03,"red","red"
"2021-02-22",869,-81,-8.53,"-8.53%",-820,1206.29,-117.14,446765,194.51,240.17,"red","red"
"2021-02-23",838,-31,-3.57,"-3.57%",-772,1096,-110.29,446765,187.57,217.21,"red","red"
"2021-02-24",807,-31,-3.7,"-3.7%",-662,1001.43,-94.57,446765,180.63,201.85,"red","red"
"2021-02-25",742,-65,-8.05,"-8.05%",-609,914.43,-87,446765,166.08,188.29,"red","red"
"2021-02-26",694,-48,-6.47,"-6.47%",-456,849.29,-65.14,446765,155.34,176.83,"red","red"
"2021-02-27",645,-49,-7.06,"-7.06%",-400,792.14,-57.14,446765,144.37,166.8,"red","red"
"2021-02-28",588,-57,-8.84,"-8.84%",-362,740.43,-51.71,446765,131.61,155.61,"red","red"
"2021-03-01",569,-19,-3.23,"-3.23%",-300,697.57,-42.86,446765,127.36,144.95,"red","red"
"2021-03-02",554,-15,-2.64,"-2.64%",-284,657,-40.57,446765,124,136.54,"red","red"
"2021-03-03",519,-35,-6.32,"-6.32%",-288,615.86,-41.14,446765,116.17,128.7,"red","red"
"2021-03-04",469,-50,-9.63,"-9.63%",-273,576.86,-39,446765,104.98,120.82,"red","red"
"2021-03-05",460,-9,-1.92,"-1.92%",-234,543.43,-33.43,446765,102.96,115.09,"red","red"
"2021-03-06",451,-9,-1.96,"-1.96%",-194,515.71,-27.71,446765,100.95,109.81,"red","red"
"2021-03-07",405,-46,-10.2,"-10.2%",-183,489.57,-26.14,446765,90.65,103.14,"red","red"
"2021-03-08",387,-18,-4.44,"-4.44%",-182,463.57,-26,446765,86.62,97.23,"red","red"
"2021-03-09",379,-8,-2.07,"-2.07%",-175,438.57,-25,446765,84.83,93.2,"red","red"
"2021-03-10",357,-22,-5.8,"-5.8%",-162,415.43,-23.14,446765,79.91,88.59,"red","red"
"2021-03-11",324,-33,-9.24,"-9.24%",-145,394.71,-20.71,446765,72.52,82.91,"red","red"
"2021-03-12",314,-10,-3.09,"-3.09%",-146,373.86,-20.86,446765,70.28,78.83,"red","red"
"2021-03-13",321,7,2.23,"2.23%",-130,355.29,-18.57,446765,71.85,75.88,"red","red"
"2021-03-14",307,-14,-4.36,"-4.36%",-98,341.29,-14,446765,68.72,72.66,"red","red"
"2021-03-15",299,-8,-2.61,"-2.61%",-88,328.71,-12.57,446765,66.93,70.06,"red","red"
"2021-03-16",293,-6,-2.01,"-2.01%",-86,316.43,-12.29,446765,65.58,68.67,"red","red"
"2021-03-17",288,-5,-1.71,"-1.71%",-69,306.57,-9.86,446765,64.46,67.51,"red","red"
"2021-03-18",279,-9,-3.12,"-3.12%",-45,300.14,-6.43,446765,62.45,65.63,"red","red"
"2021-03-19",275,-4,-1.43,"-1.43%",-39,294.57,-5.57,446765,61.55,64.19,"red","red"
"2021-03-20",271,-4,-1.45,"-1.45%",-50,287.43,-7.14,446765,60.66,62.94,"red","red"
"2021-03-21",280,9,3.32,"3.32%",-27,283.57,-3.86,446765,62.67,62.36,"red","red"
"2021-03-22",271,-9,-3.21,"-3.21%",-28,279.57,-4,446765,60.66,61.6,"red","red"
"2021-03-23",276,5,1.85,"1.85%",-17,277.14,-2.43,446765,61.78,61.46,"red","red"
"2021-03-24",272,-4,-1.45,"-1.45%",-16,274.86,-2.29,446765,60.88,61.33,"red","red"
"2021-03-25",269,-3,-1.1,"-1.1%",-10,273.43,-1.43,446765,60.21,61.24,"red","red"
"2021-03-26",270,1,0.37,"0.37%",-5,272.71,-0.71,446765,60.43,60.79,"red","red"
"2021-03-27",254,-16,-5.93,"-5.93%",-17,270.29,-2.43,446765,56.85,60.03,"red","red"
"2021-03-28",233,-21,-8.27,"-8.27%",-47,263.57,-6.71,446765,52.15,58.1,"red","red"
"2021-03-29",248,15,6.44,"6.44%",-23,260.29,-3.29,446765,55.51,57.03,"red","red"
"2021-03-30",255,7,2.82,"2.82%",-21,257.29,-3,446765,57.08,56.4,"red","red"
"2021-03-31",268,13,5.1,"5.1%",-4,256.71,-0.57,446765,59.99,56.32,"red","red"
"2021-04-01",270,2,0.75,"0.75%",1,256.86,0.14,446765,60.43,57.03,"red","red"
"2021-04-02",274,4,1.48,"1.48%",4,257.43,0.57,446765,61.33,58.87,"red","red"
"2021-04-03",283,9,3.28,"3.28%",29,261.57,4.14,446765,63.34,60.43,"red","red"
"2021-04-04",273,-10,-3.53,"-3.53%",40,267.29,5.71,446765,61.11,61.24,"red","red"
"2021-04-05",285,12,4.4,"4.4%",37,272.57,5.29,446765,63.79,62,"red","red"
"2021-04-06",303,18,6.32,"6.32%",48,279.43,6.86,446765,67.82,63.48,"red","red"
"2021-04-07",320,17,5.61,"5.61%",52,286.86,7.43,446765,71.63,65.54,"red","red"
"2021-04-08",318,-2,-0.62,"-0.62%",48,293.71,6.86,446765,71.18,67.11,"red","red"
"2021-04-09",331,13,4.09,"4.09%",57,301.86,8.14,446765,74.09,69.7,"red","red"
"2021-04-10",349,18,5.44,"5.44%",66,311.29,9.43,446765,78.12,72.57,"red","red"
"2021-04-11",357,8,2.29,"2.29%",84,323.29,12,446765,79.91,74.99,"red","red"
"2021-04-12",355,-2,-0.56,"-0.56%",70,333.29,10,446765,79.46,76.55,"red","red"
"2021-04-13",367,12,3.38,"3.38%",64,342.43,9.14,446765,82.15,78.75,"red","red"
"2021-04-14",367,0,0,"0%",47,349.14,6.71,446765,82.15,80.36,"red","red"
"2021-04-15",363,-4,-1.09,"-1.09%",45,355.57,6.43,446765,81.25,80.98,"red","red"
"2021-04-16",379,16,4.41,"4.41%",48,362.43,6.86,446765,84.83,81.97,"red","red"
"2021-04-17",376,-3,-0.79,"-0.79%",27,366.29,3.86,446765,84.16,82.91,"red","red"
"2021-04-18",368,-8,-2.13,"-2.13%",11,367.86,1.57,446765,82.37,82.95,"red","red"
"2021-04-19",370,2,0.54,"0.54%",15,370,2.14,446765,82.82,83.09,"red","red"
"2021-04-20",355,-15,-4.05,"-4.05%",-12,368.29,-1.71,446765,79.46,82.73,"red","red"
"2021-04-21",361,6,1.69,"1.69%",-6,367.43,-0.86,446765,80.8,81.92,"red","red"
"2021-04-22",350,-11,-3.05,"-3.05%",-13,365.57,-1.86,446765,78.34,80.76,"red","red"
"2021-04-23",339,-11,-3.14,"-3.14%",-40,359.86,-5.71,446765,75.88,79.46,"red","red"
"2021-04-24",346,7,2.06,"2.06%",-30,355.57,-4.29,446765,77.45,78.39,"red","red"
"2021-04-25",353,7,2.02,"2.02%",-15,353.43,-2.14,446765,79.01,78.3,"red","red"
"2021-04-26",341,-12,-3.4,"-3.4%",-29,349.29,-4.14,446765,76.33,77.4,"red","red"
"2021-04-27",347,6,1.76,"1.76%",-8,348.14,-1.14,446765,77.67,77.27,"red","red"
"2021-04-28",347,0,0,"0%",-14,346.14,-2,446765,77.67,77.63,"red","red"
"2021-04-29",358,11,3.17,"3.17%",8,347.29,1.14,446765,80.13,78.16,"red","red"
"2021-04-30",358,0,0,"0%",19,350,2.71,446765,80.13,78.39,"red","red"
"2021-05-01",358,0,0,"0%",12,351.71,1.71,446765,80.13,79.15,"red","red"
"2021-05-02",364,6,1.68,"1.68%",11,353.29,1.57,446765,81.47,79.91,"red","red"
"2021-05-03",363,-1,-0.27,"-0.27%",22,356.43,3.14,446765,81.25,80.62,"red","red"
"2021-05-04",383,20,5.51,"5.51%",36,361.57,5.14,446765,85.73,81.74,"red","red"
"2021-05-05",386,3,0.78,"0.78%",39,367.14,5.57,446765,86.4,83,"red","red"
"2021-05-06",395,9,2.33,"2.33%",37,372.43,5.29,446765,88.41,84.65,"red","red"
"2021-05-07",408,13,3.29,"3.29%",50,379.57,7.14,446765,91.32,86.62,"red","red"
"2021-05-08",407,-1,-0.25,"-0.25%",49,386.57,7,446765,91.1,88.59,"red","red"
"2021-05-09",400,-7,-1.72,"-1.72%",36,391.71,5.14,446765,89.53,89.35,"red","red"
"2021-05-10",406,6,1.5,"1.5%",43,397.86,6.14,446765,90.88,90.25,"red","red"
"2021-05-11",422,16,3.94,"3.94%",39,403.43,5.57,446765,94.46,91.46,"red","red"
"2021-05-12",430,8,1.9,"1.9%",44,409.71,6.29,446765,96.25,92.44,"red","red"
"2021-05-14",440,10,2.33,"2.33%",45,416.14,6.43,446765,98.49,93.92,"red","red"
"2021-05-13",423,-17,-3.86,"-3.86%",15,418.29,2.14,446765,94.68,94.95,"red","red"
"2021-05-14",440,17,4.02,"4.02%",33,423,4.71,446765,98.49,96.47,"red","red"
"2021-05-15",433,-7,-1.59,"-1.59%",33,427.71,4.71,446765,96.92,96.97,"red","red"
"2021-05-16",428,-5,-1.15,"-1.15%",22,430.86,3.14,446765,95.8,96.88,"red","red"
"2021-05-17",424,-4,-0.93,"-0.93%",2,431.14,0.29,446765,94.9,96.16,"red","red"
"2021-05-18",435,11,2.59,"2.59%",5,431.86,0.71,446765,97.37,96.7,"red","red"
"2021-05-19",443,8,1.84,"1.84%",3,432.29,0.43,446765,99.16,96.83,"red","red"
"2021-05-20",440,-3,-0.68,"-0.68%",17,434.71,2.43,446765,98.49,97.14,"red","red"
"2021-05-21",437,-3,-0.68,"-0.68%",-3,434.29,-0.43,446765,97.81,97.55,"red","red"
"2021-05-22",437,0,0,"0%",4,434.86,0.57,446765,97.81,98.13,"red","red"
"2021-05-23",455,18,4.12,"4.12%",27,438.71,3.86,446765,101.84,99.02,"red","red"
"2021-05-24",453,-2,-0.44,"-0.44%",29,442.86,4.14,446765,101.4,99.47,"red","red"
"2021-05-25",457,4,0.88,"0.88%",22,446,3.14,446765,102.29,100.23,"red","red"
"2021-05-26",437,-20,-4.38,"-4.38%",-6,445.14,-0.86,446765,97.81,100.23,"red","red"
"2021-05-27",439,2,0.46,"0.46%",-1,445,-0.14,446765,98.26,100.32,"red","red"
"2021-05-28",442,3,0.68,"0.68%",5,445.71,0.71,446765,98.93,99.74,"red","red"
"2021-05-29",427,-15,-3.39,"-3.39%",-10,444.29,-1.43,446765,95.58,98.57,"red","red"
"2021-05-30",415,-12,-2.81,"-2.81%",-40,438.57,-5.71,446765,92.89,96.69,"red","red"
"2021-05-31",410,-5,-1.2,"-1.2%",-43,432.43,-6.14,446765,91.77,95.49,"red","red"
"2021-06-01",396,-14,-3.41,"-3.41%",-61,423.71,-8.71,446765,88.64,93.56,"red","red"
"2021-06-02",400,4,1.01,"1.01%",-37,418.43,-5.29,446765,89.53,91.68,"red","red"
"2021-06-03",370,-30,-7.5,"-7.5%",-69,408.57,-9.86,446765,82.82,89.13,"red","red"
"2021-06-04",358,-12,-3.24,"-3.24%",-84,396.57,-12,446765,80.13,86.58,"red","red"
"2021-06-05",335,-23,-6.42,"-6.42%",-92,383.43,-13.14,446765,74.98,83.22,"red","red"
"2021-06-06",324,-11,-3.28,"-3.28%",-91,370.43,-13,446765,72.52,80,"red","red"
"2021-06-07",295,-29,-8.95,"-8.95%",-115,354,-16.43,446765,66.03,75.3,"red","red"
"2021-06-08",283,-12,-4.07,"-4.07%",-113,337.86,-16.14,446765,63.34,71.4,"red","red"
"2021-06-09",222,-61,-21.55,"-21.55%",-178,312.43,-25.43,446765,49.69,65.31,"red","red"
"2021-06-13",169,-53,-23.87,"-23.87%",-201,283.71,-28.71,446765,37.83,57.88,"red","red"
